<?xml version="1.0" standalone="no"?>
<!DOCTYPE svg PUBLIC "-//W3C//DTD SVG 1.1//EN" "http://www.w3.org/Graphics/SVG/1.1/DTD/svg11.dtd">
<svg xmlns="http://www.w3.org/2000/svg">
<metadata>Generated by Fontastic.me</metadata>
<defs>
<font id="fa" horiz-adv-x="512">
<font-face font-family="fa" units-per-em="512" ascent="480" descent="-32"/>
<missing-glyph horiz-adv-x="512" />

<glyph glyph-name="search-1" unicode="&#97;" d="M493 96l-125 125c18 29 29 62 29 99 0 106-86 192-192 192-106 0-192-86-192-192 0-106 86-192 192-192 36 0 70 11 99 28l125-124c9-9 23-9 32 0l32 32c9 9 9 23 0 32z m-288 96c-71 0-128 57-128 128 0 71 57 128 128 128 70 0 128-57 128-128 0-71-58-128-128-128z"/>
<glyph glyph-name="arrow-combo" unicode="&#99;" d="M256 512c0 0 118-186 118-186 0 0-236 0-236 0 0 0 118 186 118 186m0-512c0 0-118 187-118 187 0 0 236 0 236 0 0 0-118-187-118-187"/>
<glyph glyph-name="line-awesome" unicode="&#100;" d="M240 448l32 0 0-321 109 108 23-23-136-136-12-11-11 11-136 136 23 23 108-108z"/>
<glyph glyph-name="line-awesome-1" unicode="&#101;" d="M256 446l12-11 136-136-23-23-109 109 0-321-32 0 0 321-108-109-23 23 136 136z"/>
<glyph glyph-name="news" unicode="&#98;" d="M464 512l-352 0c-27 0-48-21-48-48l0-32-16 0c-27 0-48-21-48-48l0-320c0-35 29-64 64-64l384 0c35 0 64 29 64 64l0 400c0 27-22 48-48 48z m16-448c0-18-14-32-32-32l-384 0c-18 0-32 14-32 32l0 320c0 9 7 16 16 16l16 0 0-320c0-9 7-16 16-16 9 0 16 7 16 16l0 384c0 9 7 16 16 16l352 0c9 0 16-7 16-16z m-168 240l128 0c4 0 8 4 8 8 0 4-4 8-8 8l-128 0c-4 0-8-4-8-8 0-4 4-8 8-8z m0 48l128 0c4 0 8 4 8 8 0 4-4 8-8 8l-128 0c-4 0-8-4-8-8 0-4 4-8 8-8z m0 48l128 0c4 0 8 4 8 8 0 4-4 8-8 8l-128 0c-4 0-8-4-8-8 0-4 4-8 8-8z m-48-320l-128 0c-4 0-8-4-8-8 0-4 4-8 8-8l128 0c4 0 8 4 8 8 0 4-4 8-8 8z m0 48l-128 0c-4 0-8-4-8-8 0-4 4-8 8-8l128 0c4 0 8 4 8 8 0 4-4 8-8 8z m0 48l-128 0c-4 0-8-4-8-8 0-4 4-8 8-8l128 0c4 0 8 4 8 8 0 4-4 8-8 8z m176-96l-128 0c-4 0-8-4-8-8 0-4 4-8 8-8l128 0c4 0 8 4 8 8 0 4-4 8-8 8z m0 48l-128 0c-4 0-8-4-8-8 0-4 4-8 8-8l128 0c4 0 8 4 8 8 0 4-4 8-8 8z m0 48l-128 0c-4 0-8-4-8-8 0-4 4-8 8-8l128 0c4 0 8 4 8 8 0 4-4 8-8 8z m0 96l-304 0c-4 0-8-4-8-8 0-4 4-8 8-8l304 0c4 0 8 4 8 8 0 4-4 8-8 8z m0-48l-304 0c-4 0-8-4-8-8 0-4 4-8 8-8l304 0c4 0 8 4 8 8 0 4-4 8-8 8z m-296 80l112 0c9 0 16 7 16 16l0 112c0 9-7 16-16 16l-112 0c-9 0-16-7-16-16l0-112c0-9 7-16 16-16z m16 112l80 0 0-80-80 0z"/>
<glyph glyph-name="github" unicode="&#102;" d="M475 256c0-48-14-91-41-129-28-38-64-65-109-79-5-1-8-1-11 2-2 2-3 5-3 8l0 61c0 18-5 32-15 40 11 1 20 3 29 5 9 3 18 6 27 11 9 6 17 12 23 19 6 8 11 18 15 30 4 13 6 27 6 43 0 23-8 43-23 59 7 18 7 37-2 59-5 1-13 0-23-4-10-3-19-8-26-12l-11-7c-18 5-36 7-55 7-19 0-37-2-55-7-3 2-7 5-12 8-5 3-13 6-24 11-11 4-19 5-24 4-9-22-9-41-2-59-15-16-23-36-23-59 0-16 2-30 6-42 4-13 9-23 15-30 6-8 14-14 23-20 9-5 18-8 27-11 8-2 18-4 29-5-8-7-12-17-14-29-4-2-8-4-13-5-4-1-10-1-16-1-6 0-13 2-19 6-6 4-11 10-16 18-3 6-8 11-14 15-5 4-10 6-14 7l-5 1c-4 0-7-1-9-2-1-1-2-2-1-3 0-1 1-3 2-4 2-1 3-2 4-3l2-2c4-2 8-5 13-11 4-5 7-10 9-14l2-7c3-7 7-13 13-17 6-5 12-8 19-9 7-1 14-2 20-2 6 0 12 0 16 1l6 1c0-7 0-16 1-25 0-10 0-15 0-16 0-3-2-6-4-8-2-3-6-3-11-2-45 14-81 41-109 79-27 38-41 81-41 129 0 40 9 77 29 110 20 34 46 60 80 80 33 20 70 29 110 29 40 0 77-9 110-29 34-20 60-46 80-80 20-33 29-70 29-110z"/>
<glyph glyph-name="paper-plane" unicode="&#103;" d="M504 509c6-5 9-11 8-18l-73-439c-1-6-4-10-10-13-2-2-5-2-8-2-3 0-5 0-7 1l-130 53-69-84c-3-5-8-7-14-7-2 0-4 0-6 1-4 1-7 4-9 7-2 3-3 6-3 10l0 100 247 303-306-265-113 47c-7 2-10 7-11 15 0 8 3 14 9 17l476 274c2 2 5 3 9 3 4 0 7-1 10-3z"/>
<glyph glyph-name="reddit" unicode="&#104;" d="M313 179c3-3 3-6 0-9-12-12-31-18-57-18-26 0-45 6-57 18-3 3-3 6 0 9 1 1 3 1 4 1 2 0 4 0 5-1 9-10 25-14 48-14 23 0 39 4 48 14 1 1 3 1 5 1 1 0 3 0 4-1z m-88 51c0-7-2-13-7-18-5-5-11-7-18-7-7 0-13 2-18 7-5 5-8 11-8 18 0 8 3 14 8 19 5 5 11 7 18 7 7 0 13-3 18-8 5-5 7-11 7-18z m113 0c0-7-3-13-8-18-5-5-11-7-18-7-7 0-13 2-18 7-5 5-7 11-7 18 0 7 2 13 7 18 5 5 11 8 18 8 7 0 13-2 18-7 5-5 8-11 8-19z m72 35c0 9-4 17-10 24-7 6-15 10-25 10-9 0-17-4-24-11-25 17-55 27-89 28l18 81 57-13c0-7 3-13 8-18 5-5 11-8 18-8 7 0 13 3 18 8 5 5 7 11 7 18 0 7-2 13-7 18-5 5-11 8-18 8-11 0-18-5-23-15l-63 14c-4 1-6 0-8-4l-19-89c-35-2-64-11-89-28-6 7-15 11-24 11-10 0-18-4-25-10-6-7-10-15-10-24 0-7 2-13 6-19 3-5 8-9 14-12-1-5-2-11-2-16 0-27 13-50 40-70 27-19 59-29 96-29 38 0 70 10 97 29 27 20 40 43 40 70 0 6-1 11-2 16 6 3 10 7 14 12 3 6 5 12 5 19z m102-9c0-35-7-68-20-99-14-32-32-59-55-82-23-23-50-41-82-55-31-13-64-20-99-20-35 0-68 7-99 20-32 14-59 32-82 55-23 23-41 50-55 82-13 31-20 64-20 99 0 35 7 68 20 99 14 32 32 59 55 82 23 23 50 41 82 55 31 13 64 20 99 20 35 0 68-7 99-20 32-14 59-32 82-55 23-23 41-50 55-82 13-31 20-64 20-99z"/>
<glyph glyph-name="forum" unicode="&#106;" d="M148 200c0 0 180 0 180 0 0 0 1 0 3 1 0 0 2 0 2 0 0 0 0-47 0-47 0-14-5-26-15-36-10-10-22-16-36-16 0 0-128 0-128 0 0 0-77-76-77-76 0 0 0 76 0 76 0 0-26 0-26 0-13 0-25 6-36 16-10 10-15 22-15 36 0 0 0 153 0 153 0 15 5 27 15 37 11 9 23 14 36 14 0 0 97 0 97 0 0 0 0-158 0-158m313 286c14 0 26-5 36-14 10-10 15-22 15-37 0 0 0-153 0-153 0-14-5-26-15-36-10-10-22-16-36-16 0 0-26 0-26 0 0 0 0-76 0-76 0 0-77 76-77 76 0 0-179 0-179 0 0 0 0 205 0 205 0 15 5 27 16 37 10 9 22 14 35 14 0 0 231 0 231 0"/>
<glyph glyph-name="line-awesome-2" unicode="&#105;" d="M256 448l6-3 96-38 10-4 0-108 87-37 9-5 0-129-8-5-96-53-7-4-8 3-89 45-89-45-7-3-8 4-96 53-8 5 0 129 10 5 86 37 0 108 10 4 96 38z m0-35l-52-21 52-20 53 20z m-80-44l0-74 64-29 0 78z m160 0l-64-25 0-78 64 29z m-176-102l-58-25 58-29 58 28z m192 0l-40-18-18-8 58-28 58 29z m-272-50l0-74 64-36 0 78z m352 0l-64-32 0-78 64 36z m-192-1l-64-31 0-79 64 32z m32 0l0-78 64-32 0 79z"/>
<glyph glyph-name="th-large" unicode="&#108;" d="M238 219l0-109c0-10-4-19-11-26-7-7-16-11-26-11l-146 0c-10 0-19 4-26 11-7 7-11 16-11 26l0 109c0 10 4 19 11 26 7 7 16 11 26 11l146 0c10 0 19-4 26-11 7-7 11-16 11-26z m0 220l0-110c0-10-4-18-11-26-7-7-16-10-26-10l-146 0c-10 0-19 3-26 10-7 8-11 16-11 26l0 110c0 10 4 18 11 26 7 7 16 10 26 10l146 0c10 0 19-3 26-10 7-8 11-16 11-26z m256-220l0-109c0-10-4-19-11-26-7-7-16-11-26-11l-146 0c-10 0-19 4-26 11-7 7-11 16-11 26l0 109c0 10 4 19 11 26 7 7 16 11 26 11l146 0c10 0 19-4 26-11 7-7 11-16 11-26z m0 220l0-110c0-10-4-18-11-26-7-7-16-10-26-10l-146 0c-10 0-19 3-26 10-7 8-11 16-11 26l0 110c0 10 4 18 11 26 7 7 16 10 26 10l146 0c10 0 19-3 26-10 7-8 11-16 11-26z"/>
<glyph glyph-name="line-awesome-3" unicode="&#107;" d="M419 540l108-108-108-108-22 23 68 69-337 0 0 32 337 0-68 69z m-198-225l23-23-69-68 337 0 0-32-337 0 69-69-23-23-107 108z"/>
<glyph glyph-name="user-outline" unicode="&#109;" d="M505 86c-36 85-105 125-158 143 24 33 37 81 37 140 1 99-81 126-124 127-44 0-126-25-127-125 0-59 12-107 35-140-54-18-123-56-161-141l-9-20 21-8c4-2 109-45 237-46 127-1 233 40 237 41l21 8z m-246 367c9 0 83-4 83-84-1-64-18-112-48-133l-37-26-36 27c-29 21-46 70-45 134 0 80 75 82 83 82z m-3-394c-86 1-163 22-199 34 39 69 105 95 156 106l44 9 45-10c50-11 116-39 154-108-36-12-113-32-200-31z"/>
<glyph glyph-name="data" unicode="&#110;" d="M256 512c-108 0-224-33-224-104l0-304c0-71 116-104 224-104 108 0 224 33 224 104l0 304c0 71-116 104-224 104z m192-408c0-40-86-72-192-72-106 0-192 32-192 72l0 60c33-34 113-52 192-52 79 0 159 18 192 52z m0 96l0 0c0 0 0 0 0 0 0-40-86-72-192-72-106 0-192 32-192 72 0 0 0 0 0 0l0 0 0 60c33-34 113-52 192-52 79 0 159 18 192 52z m0 96l0 0c0 0 0 0 0 0 0-40-86-72-192-72-106 0-192 32-192 72 0 0 0 0 0 0l0 0 0 55c42-32 119-47 192-47 73 0 150 15 192 47z m-192 40c-106 0-192 32-192 72 0 40 86 72 192 72 106 0 192-32 192-72 0-40-86-72-192-72z m160-240c0-9-7-16-16-16-9 0-16 7-16 16 0 9 7 16 16 16 9 0 16-7 16-16z m0 96c0-9-7-16-16-16-9 0-16 7-16 16 0 9 7 16 16 16 9 0 16-7 16-16z m0 96c0-9-7-16-16-16-9 0-16 7-16 16 0 9 7 16 16 16 9 0 16-7 16-16z"/>
<glyph glyph-name="tags" unicode="&#111;" d="M110 384c0 10-4 19-11 26-7 7-16 11-26 11-10 0-19-4-26-11-7-7-10-16-10-26 0-10 3-19 10-26 7-7 16-11 26-11 10 0 19 4 26 11 7 7 11 16 11 26z m305-165c0-10-4-18-11-25l-140-141c-8-7-16-10-26-10-10 0-19 3-26 10l-204 205c-8 7-14 16-19 29-5 12-7 23-7 33l0 119c0 10 3 18 11 26 7 7 15 10 25 10l119 0c10 0 21-2 34-7 12-5 21-11 29-19l204-204c7-7 11-16 11-26z m109 0c0-10-3-18-10-25l-141-141c-7-7-16-10-26-10-6 0-12 1-16 4-5 2-10 7-16 12l135 135c7 7 10 15 10 25 0 10-3 19-10 26l-205 204c-7 8-17 14-29 19-12 5-23 7-33 7l64 0c10 0 21-2 33-7 12-5 22-11 29-19l205-204c7-7 10-16 10-26z"/>
<glyph glyph-name="content-34" unicode="&#112;" d="M32 160l160 0 0-32-160 0z m288 0l160 0 0-32-160 0z m-128 320l160 0 0-32-160 0z m-32 32l0-192 96 0 0-32-160 0 0-96-96 0 0-192 224 0 0 192-96 0 0 64 256 0 0-64-96 0 0-192 224 0 0 192-96 0 0 96-128 0 0 32 96 0 0 192z"/>
<glyph glyph-name="bar-chart" unicode="&#113;" d="M146 256l0-146-73 0 0 146z m110 146l0-292-73 0 0 292z m293-329l0-36-586 0 0 438 37 0 0-402z m-183 256l0-219-73 0 0 219z m109 110l0-329-73 0 0 329z"/>
<glyph glyph-name="ios-arrow-thin-right" unicode="&#114;" d="M322 162c-3 3-3 8 0 12l67 74-285 0c-4 0-8 4-8 8 0 4 4 8 8 8l285 0-67 74c-3 4-3 8 0 12 3 3 9 3 12 0 0 0 79-87 80-88 0-1 2-3 2-6 0-3-2-5-2-6-1-1-80-88-80-88-2-1-4-2-6-2-2 0-4 1-6 2z"/>
<glyph glyph-name="angle-double-right" unicode="&#115;" d="M280 238c0-3-1-5-3-7l-133-133c-2-2-4-3-7-3-2 0-5 1-6 3l-15 14c-2 2-3 4-3 7 0 2 1 5 3 6l113 113-113 112c-2 2-3 4-3 7 0 2 1 4 3 6l15 14c1 2 4 3 6 3 3 0 5-1 7-3l133-133c2-2 3-4 3-6z m109 0c0-3-1-5-2-7l-134-133c-1-2-4-3-6-3-3 0-5 1-7 3l-14 14c-2 2-3 4-3 7 0 2 1 5 3 6l112 113-112 112c-2 2-3 4-3 7 0 2 1 4 3 6l14 14c2 2 4 3 7 3 2 0 5-1 6-3l134-133c1-2 2-4 2-6z"/>
<glyph glyph-name="angle-double-left" unicode="&#116;" d="M289 119c0-3-1-5-3-7l-14-14c-2-2-4-3-7-3-2 0-5 1-6 3l-134 133c-1 2-2 4-2 7 0 2 1 4 2 6l134 133c1 2 4 3 6 3 3 0 5-1 7-3l14-14c2-2 3-4 3-6 0-3-1-5-3-7l-112-112 112-113c2-1 3-4 3-6z m110 0c0-3-1-5-3-7l-15-14c-1-2-4-3-6-3-3 0-5 1-7 3l-133 133c-2 2-3 4-3 7 0 2 1 4 3 6l133 133c2 2 4 3 7 3 2 0 5-1 6-3l15-14c2-2 3-4 3-6 0-3-1-5-3-7l-113-112 113-113c2-1 3-4 3-6z"/>
<glyph glyph-name="angle-left" unicode="&#117;" d="M344 357c0-3-1-5-3-7l-112-112 112-113c2-1 3-4 3-6 0-3-1-5-3-7l-14-14c-2-2-5-3-7-3-2 0-5 1-7 3l-133 133c-2 2-3 4-3 7 0 2 1 4 3 6l133 133c2 2 5 3 7 3 2 0 5-1 7-3l14-14c2-2 3-4 3-6z"/>
<glyph glyph-name="angle-right" unicode="&#118;" d="M335 238c0-3-1-5-3-7l-133-133c-2-2-5-3-7-3-2 0-5 1-7 3l-14 14c-2 2-3 4-3 7 0 2 1 5 3 6l112 113-112 112c-2 2-3 4-3 7 0 2 1 4 3 6l14 14c2 2 5 3 7 3 2 0 5-1 7-3l133-133c2-2 3-4 3-6z"/>
</font></defs></svg>
